<?xml version="1.0" encoding="UTF-8" standalone="no"?>
<svg
   xmlns:dc="http://purl.org/dc/elements/1.1/"
   xmlns:cc="http://creativecommons.org/ns#"
   xmlns:rdf="http://www.w3.org/1999/02/22-rdf-syntax-ns#"
   xmlns:svg="http://www.w3.org/2000/svg"
   xmlns="http://www.w3.org/2000/svg"
   id="svg8"
   version="1.1"
   viewBox="0 0 135.46666 135.46667"
   height="512"
   width="512">
  <defs
     id="defs2">
    <marker
       style="overflow:visible"
       id="marker1406"
       refX="0.0"
       refY="0.0"
       orient="auto">
      <path
         transform="scale(0.8) translate(12.5,0)"
         style="fill-rule:evenodd;stroke:#000000;stroke-width:1pt;stroke-opacity:1;fill:#000000;fill-opacity:1"
         d="M 0.0,0.0 L 5.0,-5.0 L -12.5,0.0 L 5.0,5.0 L 0.0,0.0 z "
         id="path1404" />
    </marker>
    <marker
       style="overflow:visible"
       id="marker1360"
       refX="0.0"
       refY="0.0"
       orient="auto">
      <path
         transform="scale(0.8) translate(12.5,0)"
         style="fill-rule:evenodd;stroke:#000000;stroke-width:1pt;stroke-opacity:1;fill:#000000;fill-opacity:1"
         d="M 0.0,0.0 L 5.0,-5.0 L -12.5,0.0 L 5.0,5.0 L 0.0,0.0 z "
         id="path1358" />
    </marker>
    <marker
       style="overflow:visible"
       id="marker1320"
       refX="0.0"
       refY="0.0"
       orient="auto">
      <path
         transform="scale(0.8) translate(12.5,0)"
         style="fill-rule:evenodd;stroke:#000000;stroke-width:1pt;stroke-opacity:1;fill:#000000;fill-opacity:1"
         d="M 0.0,0.0 L 5.0,-5.0 L -12.5,0.0 L 5.0,5.0 L 0.0,0.0 z "
         id="path1318" />
    </marker>
    <marker
       style="overflow:visible"
       id="marker1244"
       refX="0.0"
       refY="0.0"
       orient="auto">
      <path
         transform="scale(0.8) translate(12.5,0)"
         style="fill-rule:evenodd;stroke:#000000;stroke-width:1pt;stroke-opacity:1;fill:#000000;fill-opacity:1"
         d="M 0.0,0.0 L 5.0,-5.0 L -12.5,0.0 L 5.0,5.0 L 0.0,0.0 z "
         id="path1242" />
    </marker>
    <marker
       style="overflow:visible"
       id="marker1186"
       refX="0.0"
       refY="0.0"
       orient="auto">
      <path
         transform="scale(0.8) translate(12.5,0)"
         style="fill-rule:evenodd;stroke:#000000;stroke-width:1pt;stroke-opacity:1;fill:#000000;fill-opacity:1"
         d="M 0.0,0.0 L 5.0,-5.0 L -12.5,0.0 L 5.0,5.0 L 0.0,0.0 z "
         id="path1184" />
    </marker>
    <marker
       style="overflow:visible"
       id="marker1146"
       refX="0.0"
       refY="0.0"
       orient="auto">
      <path
         transform="scale(0.8) translate(12.5,0)"
         style="fill-rule:evenodd;stroke:#000000;stroke-width:1pt;stroke-opacity:1;fill:#000000;fill-opacity:1"
         d="M 0.0,0.0 L 5.0,-5.0 L -12.5,0.0 L 5.0,5.0 L 0.0,0.0 z "
         id="path1144" />
    </marker>
    <marker
       style="overflow:visible"
       id="Arrow1Lstart"
       refX="0.0"
       refY="0.0"
       orient="auto">
      <path
         transform="scale(0.8) translate(12.5,0)"
         style="fill-rule:evenodd;stroke:#000000;stroke-width:1pt;stroke-opacity:1;fill:#000000;fill-opacity:1"
         d="M 0.0,0.0 L 5.0,-5.0 L -12.5,0.0 L 5.0,5.0 L 0.0,0.0 z "
         id="path850" />
    </marker>
  </defs>
  <metadata
     id="metadata5">
    <rdf:RDF>
      <cc:Work
         rdf:about="">
        <dc:format>image/svg+xml</dc:format>
        <dc:type
           rdf:resource="http://purl.org/dc/dcmitype/StillImage" />
        <dc:title></dc:title>
      </cc:Work>
    </rdf:RDF>
  </metadata>
  <g
     transform="translate(-53.692056,-53.835845)"
     id="layer1">
    <path
       id="path1034"
       d="m 100.29993,169.15019 c -10.58368,-2.20784 -17.774804,-7.94002 -20.523167,-16.3594 -0.739167,-2.26438 -1.144474,-4.59795 -1.547548,-8.91008 -0.88145,-9.42987 -3.126979,-15.295 -8.304348,-21.69026 l -0.479278,-0.59203 0.936843,-1.06338 c 2.36194,-2.68096 4.643702,-6.87544 5.929038,-10.89914 0.961171,-3.0089 1.509717,-5.97546 1.919685,-10.381732 0.54195,-5.824776 1.220236,-8.625868 2.896063,-11.95973 1.094902,-2.178185 1.899228,-3.316944 3.598385,-5.094585 4.168064,-4.360586 10.315133,-7.31769 17.450447,-8.394695 l 1.87612,-0.283181 1.87612,0.930414 c 1.03186,0.511727 3.04435,1.391598 4.47219,1.955268 8.82293,3.483038 15.95439,3.065594 25.42423,-1.488223 l 2.94188,-1.414674 1.94911,0.312115 c 10.02063,1.60462 17.43354,6.35612 21.02297,13.475233 1.5506,3.075397 2.31109,6.165831 2.78309,11.309861 0.3897,4.247019 0.64615,5.914279 1.32577,8.619709 1.28934,5.13251 3.46076,9.55804 6.44738,13.14021 l 1.11028,1.33167 -0.87861,0.98589 c -2.32773,2.61194 -4.69697,6.94496 -5.97,10.91831 -1.03057,3.21654 -1.59041,6.24171 -2.02196,10.92565 -0.57274,6.21648 -1.79553,10.29531 -4.14189,13.81605 -3.43389,5.15257 -9.41824,8.87235 -17.16271,10.66803 -1.03187,0.23927 -2.47207,0.49736 -3.20044,0.57357 -1.271,0.13296 -1.42652,0.0902 -3.86261,-1.05994 -5.97638,-2.82181 -9.08813,-3.68149 -13.90538,-3.84162 -2.91495,-0.0969 -3.75258,-0.0453 -5.66098,0.34889 -2.97826,0.61513 -6.21266,1.74988 -9.53947,3.34681 -3.1197,1.49751 -3.23457,1.51068 -6.76121,0.77499 z"
       style="fill:#383838;fill-opacity:1;stroke:none;stroke-width:0.22072029" />
    <g
       transform="matrix(1,0,0,0.99143233,8.3333337e-7,1.0415646)"
       style="stroke:#00c032;stroke-opacity:1"
       id="g1102">
      <path
         id="path997-5"
         d="m 100.54167,183.22917 c 7.05584,-6.17386 14.11139,-12.34747 21.16667,-12.34746 7.05529,1e-5 14.11112,6.17386 21.16666,12.34746"
         style="fill:none;stroke:#00c032;stroke-width:3.72304654;stroke-linecap:butt;stroke-linejoin:miter;stroke-miterlimit:4;stroke-dasharray:none;stroke-opacity:1"
         transform="matrix(1,0,0,-0.64930026,-0.2829455,189.59123)" />
      <g
         style="stroke:#00c032;stroke-opacity:1"
         id="g1053"
         transform="translate(64.275387,8.4545949)">
        <path
           id="path4594-6-3-7"
           d="m 42.500601,58.139407 c 0,0 -33.050983,0.01356 -34.927428,31.968047 -1.3510408,23.007136 -18.156504,23.007136 -18.156504,23.007136"
           style="fill:none;fill-opacity:1;stroke:#00c032;stroke-width:16;stroke-linecap:butt;stroke-linejoin:miter;stroke-miterlimit:4;stroke-dasharray:none;stroke-opacity:1;paint-order:fill markers stroke" />
        <path
           id="path4594-6-3-7-2"
           d="m 42.500603,168.08976 c 0,0 -33.0509846,-0.0136 -34.9274306,-31.96804 -1.35104,-23.00713 -18.1565034,-23.00713 -18.1565034,-23.00713"
           style="fill:none;fill-opacity:1;stroke:#00c032;stroke-width:16;stroke-linecap:butt;stroke-linejoin:miter;stroke-miterlimit:4;stroke-dasharray:none;stroke-opacity:1;paint-order:fill markers stroke" />
      </g>
      <g
         style="stroke:#00c032;stroke-opacity:1"
         id="g1053-9"
         transform="matrix(-1,0,0,1,178.57539,8.4545949)">
        <path
           id="path4594-6-3-7-1"
           d="m 42.500601,58.139407 c 0,0 -33.050983,0.01356 -34.927428,31.968047 -1.3510408,23.007136 -18.156504,23.007136 -18.156504,23.007136"
           style="fill:none;fill-opacity:1;stroke:#00c032;stroke-width:16;stroke-linecap:butt;stroke-linejoin:miter;stroke-miterlimit:4;stroke-dasharray:none;stroke-opacity:1;paint-order:fill markers stroke" />
        <path
           id="path4594-6-3-7-2-2"
           d="m 42.500603,168.08976 c 0,0 -33.0509846,-0.0136 -34.9274306,-31.96804 -1.35104,-23.00713 -18.1565034,-23.00713 -18.1565034,-23.00713"
           style="fill:none;fill-opacity:1;stroke:#00c032;stroke-width:16;stroke-linecap:butt;stroke-linejoin:miter;stroke-miterlimit:4;stroke-dasharray:none;stroke-opacity:1;paint-order:fill markers stroke" />
      </g>
      <path
         id="path997-5-0"
         d="m 100.54167,183.22917 c 7.05584,-6.17386 14.11139,-12.34747 21.16667,-12.34746 7.05529,1e-5 14.11112,6.17386 21.16666,12.34746"
         style="fill:none;stroke:#00c032;stroke-width:3.72304654;stroke-linecap:butt;stroke-linejoin:miter;stroke-miterlimit:4;stroke-dasharray:none;stroke-opacity:1"
         transform="matrix(1,0,0,0.64930025,-0.2829455,53.547135)" />
    </g>
    <g
       transform="translate(1.3333333e-5,1.3333333e-6)"
       id="g8739">
      <path
         style="fill:#f0f0f0;fill-opacity:1;stroke:none;stroke-width:10.83763313;stroke-linecap:butt;stroke-linejoin:miter;stroke-miterlimit:4;stroke-dasharray:none;stroke-opacity:0.97169806"
         d="m 140.5364,91.132687 -13.27182,0.01881 20.6375,30.427093 -20.6375,30.42708 13.28682,-0.016 20.56146,-30.42981 z"
         id="path5249-7" />
      <path
         style="opacity:1;fill:#f0f0f0;fill-opacity:1;stroke:none;stroke-width:31.75296211;stroke-linecap:butt;stroke-linejoin:miter;stroke-miterlimit:4;stroke-dasharray:none;stroke-opacity:0.97169806"
         d="m 126.74141,103.9915 6.59733,9.75536 -17.15658,25.39999 -6.67013,-9.73152 z"
         id="path5266" />
      <path
         style="fill:#f0f0f0;fill-opacity:1;stroke:none;stroke-width:10.83763313;stroke-linecap:butt;stroke-linejoin:miter;stroke-miterlimit:4;stroke-dasharray:none;stroke-opacity:0.97169806"
         d="m 102.31437,91.132684 13.27183,0.01881 -20.637518,30.427086 20.637518,30.42709 -13.28683,-0.016 -20.561478,-30.42982 z"
         id="path5249-7-7" />
    </g>
  </g>
</svg>
