<svg xmlns="http://www.w3.org/2000/svg" viewBox="0 0 24 24"
    width="24" height="24" fill="none" stroke="#FFF"
    stroke-width="2" stroke-linejoin="round">
        <polygon points="5 3 19 12 5 21 5 3"/>
</svg>
